<svg width="24" height="24" viewBox="0 0 24 24" fill="none" xmlns="http://www.w3.org/2000/svg">
<path d="M20.724 22.8418C18.7624 22.8418 16.7951 22.8418 14.8336 22.8418C11.703 22.8418 8.57249 22.8418 5.44196 22.8418C4.72347 22.8418 3.99929 22.8418 3.2808 22.8418C3.46898 23.03 3.66286 23.2239 3.85103 23.4121C3.85103 22.6537 3.85103 21.8953 3.85103 21.1369C3.85103 19.3235 3.85103 17.5159 3.85103 15.7026C3.85103 13.5015 3.85103 11.3005 3.85103 9.0994C3.85103 7.20626 3.85103 5.30741 3.85103 3.41426C3.85103 2.78701 3.85103 2.15406 3.85103 1.52681C3.85103 1.236 3.87384 0.928078 3.85103 0.637263C3.85103 0.625859 3.85103 0.608752 3.85103 0.597348C3.66286 0.785522 3.46898 0.979398 3.2808 1.16757C4.75769 1.16757 6.23457 1.16757 7.71145 1.16757C10.0665 1.16757 12.4215 1.16757 14.7765 1.16757C15.3183 1.16757 15.8543 1.16757 16.396 1.16757C16.2591 1.11055 16.128 1.05353 15.9911 1.00221C17.257 2.2567 18.5172 3.5112 19.7831 4.76569C19.9656 4.94246 20.1424 5.12494 20.3248 5.3017C20.2678 5.16485 20.2108 5.0337 20.1595 4.89685C20.1595 6.99527 20.1595 9.088 20.1595 11.1864C20.1595 14.4994 20.1595 17.8181 20.1595 21.1312C20.1595 21.8896 20.1595 22.6537 20.1595 23.4121C20.1595 24.1476 21.2999 24.1476 21.2999 23.4121C21.2999 21.2224 21.2999 19.0384 21.2999 16.8488C21.2999 13.5015 21.2999 10.1486 21.2999 6.8014C21.2999 6.33381 21.2999 5.86623 21.2999 5.39864C21.2999 5.19336 21.3341 4.94246 21.2771 4.74288C21.2258 4.54901 21.049 4.40645 20.9122 4.2696C20.6898 4.04721 20.4674 3.82482 20.2393 3.60243C19.6235 2.98659 19.0019 2.37645 18.3861 1.76061C17.9014 1.28162 17.4167 0.796926 16.932 0.317937C16.7723 0.158274 16.6355 0.0328247 16.3846 0.0157179C16.299 0.0100157 16.2135 0.0157179 16.1337 0.0157179C14.8849 0.0157179 13.6361 0.0157179 12.393 0.0157179C9.41643 0.0157179 6.43985 0.0157179 3.46328 0.0157179C3.40055 0.0157179 3.34353 0.0157179 3.2808 0.0157179C2.97288 0.0157179 2.71058 0.278021 2.71058 0.585943C2.71058 1.34434 2.71058 2.10274 2.71058 2.86114C2.71058 4.67446 2.71058 6.48207 2.71058 8.29539C2.71058 10.4965 2.71058 12.6975 2.71058 14.8986C2.71058 16.7917 2.71058 18.6906 2.71058 20.5837C2.71058 21.5075 2.67637 22.437 2.71058 23.3607C2.71058 23.3721 2.71058 23.3892 2.71058 23.4007C2.71058 23.7086 2.97288 23.9709 3.2808 23.9709C5.24238 23.9709 7.20966 23.9709 9.17123 23.9709C12.3018 23.9709 15.4323 23.9709 18.5628 23.9709C19.2813 23.9709 20.0055 23.9709 20.724 23.9709C21.4539 23.9823 21.4539 22.8418 20.724 22.8418Z" fill="#91979F"/>
<path d="M15.7575 0.660091C15.7575 2.14268 15.7575 3.63097 15.7575 5.11355C15.7575 5.42147 16.0198 5.68378 16.3277 5.68378C17.7704 5.68378 19.2131 5.68378 20.6614 5.68378C21.397 5.68378 21.397 4.54333 20.6614 4.54333C19.2188 4.54333 17.7761 4.54333 16.3277 4.54333C16.5159 4.7315 16.7098 4.92538 16.898 5.11355C16.898 3.63097 16.898 2.14268 16.898 0.660091C16.898 -0.0754993 15.7575 -0.0754993 15.7575 0.660091Z" fill="#91979F"/>
<path d="M6.81109 11.6595C8.88101 11.6595 10.9452 11.6595 13.0151 11.6595C13.306 11.6595 13.5968 11.6595 13.8876 11.6595C14.6232 11.6595 14.6232 10.519 13.8876 10.519C11.8177 10.519 9.75345 10.519 7.68354 10.519C7.39272 10.519 7.10191 10.519 6.81109 10.519C6.0755 10.519 6.0755 11.6595 6.81109 11.6595Z" fill="#91979F"/>
<path d="M6.8106 15.1946C9.5933 15.1946 12.376 15.1946 15.1587 15.1946C15.5465 15.1946 15.9399 15.1946 16.3277 15.1946C17.0633 15.1946 17.0633 14.0542 16.3277 14.0542C13.545 14.0542 10.7623 14.0542 7.97957 14.0542C7.59181 14.0542 7.19836 14.0542 6.8106 14.0542C6.07501 14.0542 6.07501 15.1946 6.8106 15.1946Z" fill="#91979F"/>
<path d="M6.80481 18.7362C7.97377 18.7362 9.14843 18.7362 10.3174 18.7362C12.1991 18.7362 14.0752 18.7362 15.9569 18.7362C16.3903 18.7362 16.818 18.7362 17.2513 18.7362C17.9869 18.7362 17.9869 17.5957 17.2513 17.5957C16.0824 17.5957 14.9077 17.5957 13.7387 17.5957C11.857 17.5957 9.98096 17.5957 8.09922 17.5957C7.66585 17.5957 7.23818 17.5957 6.80481 17.5957C6.06922 17.5957 6.06922 18.7362 6.80481 18.7362Z" fill="#91979F"/>
</svg>
