<svg width="15" height="24" viewBox="0 0 15 24" fill="none" xmlns="http://www.w3.org/2000/svg">
<path fill-rule="evenodd" clip-rule="evenodd" d="M8.25786 1C8.25786 0.585786 7.92207 0.25 7.50786 0.25C7.09365 0.25 6.75786 0.585786 6.75786 1V4.25H4.92849C3.77929 4.25 2.67261 4.69225 1.85307 5.48658C1.03274 6.28167 0.567383 7.36513 0.567383 8.5C0.567383 9.63487 1.03274 10.7183 1.85307 11.5134C2.67261 12.3077 3.77929 12.75 4.92849 12.75H6.75786V18.25H1.31738C0.903169 18.25 0.567383 18.5858 0.567383 19C0.567383 19.4142 0.903169 19.75 1.31738 19.75H6.75786V23C6.75786 23.4142 7.09365 23.75 7.50786 23.75C7.92207 23.75 8.25786 23.4142 8.25786 23V19.75H10.0872C11.2364 19.75 12.3431 19.3077 13.1626 18.5134C13.983 17.7183 14.4483 16.6349 14.4483 15.5C14.4483 14.3651 13.983 13.2817 13.1626 12.4866C12.3431 11.6923 11.2364 11.25 10.0872 11.25H8.25786V5.75H12.6666C13.0808 5.75 13.4166 5.41421 13.4166 5C13.4166 4.58579 13.0808 4.25 12.6666 4.25H8.25786V1ZM6.75786 5.75H4.92849C4.16225 5.75 3.43192 6.04524 2.89703 6.56368C2.36294 7.08134 2.06738 7.77835 2.06738 8.5C2.06738 9.22165 2.36294 9.91866 2.89703 10.4363C3.43192 10.9548 4.16225 11.25 4.92849 11.25H6.75786V5.75ZM8.25786 12.75V18.25H10.0872C10.8535 18.25 11.5838 17.9548 12.1187 17.4363C12.6528 16.9187 12.9483 16.2216 12.9483 15.5C12.9483 14.7784 12.6528 14.0813 12.1187 13.5637C11.5838 13.0452 10.8535 12.75 10.0872 12.75H8.25786Z" fill="white"/>
</svg>
