<svg width="38" height="38" viewBox="0 0 38 38" fill="none" xmlns="http://www.w3.org/2000/svg">
<rect x="0.395833" y="0.395833" width="37.2083" height="37.2083" rx="18.6042" stroke="white" stroke-opacity="0.300838" stroke-width="0.791667"/>
<path fill-rule="evenodd" clip-rule="evenodd" d="M25.3334 15.0417H12.6668V13.4584H25.3334V15.0417ZM25.3334 18.2084H12.6667V19.7917H25.3334V18.2084ZM12.6667 22.9584H25.3334V24.5417H12.6667V22.9584Z" fill="white"/>
</svg>
