<svg width="24" height="25" viewBox="0 0 24 25" fill="none" xmlns="http://www.w3.org/2000/svg">
<path d="M2.7047 7.25655H6.90615C6.60472 7.0399 6.34578 6.82464 6.16518 6.63175C5.0949 5.49815 5.0949 3.65308 6.16518 2.51948C7.20492 1.41803 9.01882 1.41664 10.0599 2.51948C10.6349 3.12752 12.1633 5.60298 11.9521 7.25655H12.0477C11.8379 5.60298 13.365 3.12752 13.94 2.51948C14.981 1.41664 16.7949 1.41803 17.8347 2.51948C18.905 3.65308 18.905 5.49815 17.836 6.63175C17.6541 6.82464 17.3951 7.0399 17.0937 7.25655H21.2952C22.0268 7.25655 22.623 7.88416 22.623 8.65433V12.1488C22.623 12.5346 22.3256 12.8477 21.9591 12.8477H21.2952V21.2343C21.2952 22.0045 20.6989 22.6321 19.9673 22.6321H4.03259C3.30093 22.6321 2.7047 22.0045 2.7047 21.2343V12.8477H2.04076C1.67426 12.8477 1.37681 12.5346 1.37681 12.1488V8.65433C1.37681 7.88416 1.97304 7.25655 2.7047 7.25655ZM16.8932 3.50492C16.6236 3.21977 16.2664 3.06322 15.8867 3.06322C15.5082 3.06322 15.151 3.21977 14.8815 3.50492C13.9865 4.45261 13.0968 6.87356 13.4062 7.21043C13.4062 7.21043 13.4619 7.25655 13.6518 7.25655C14.5694 7.25655 16.3209 6.25295 16.8932 5.64631C17.4496 5.05645 17.4496 4.09478 16.8932 3.50492ZM12.6639 21.2343H19.9673V12.8477H12.6639V21.2343ZM12.6639 11.4499H21.2952V8.65433H13.6518H12.6639V11.4499ZM9.11841 3.50492C8.57929 2.93602 7.64445 2.93742 7.10666 3.50492C6.55027 4.09478 6.55027 5.05645 7.10666 5.64631C7.67898 6.25295 9.43046 7.25655 10.348 7.25655C10.5379 7.25655 10.5937 7.21183 10.595 7.21043C10.9031 6.87356 10.0134 4.45261 9.11841 3.50492ZM4.03259 21.2343H11.336V12.8477H4.03259V21.2343ZM2.7047 11.4499H11.336V8.65433H10.348H2.7047V11.4499Z" fill="#8A9097"/>
</svg>
