<svg width="30" height="27" viewBox="0 0 30 27" fill="none" xmlns="http://www.w3.org/2000/svg">
<path d="M21.3056 12.0278C20.9635 11.5749 20.4258 11.3736 19.8881 11.3233C19.4482 11.3233 19.0083 11.4742 18.6173 11.8265C18.5684 11.8768 18.4706 11.9272 18.4217 12.0278L15.6845 15.2486L14.9513 17.2617L14.4625 18.6708L22.3321 14.3931L23.0164 14.0408L21.3056 12.0278ZM21.3056 12.0278C20.9635 11.5749 20.4258 11.3736 19.8881 11.3233C19.4482 11.3233 19.0083 11.4742 18.6173 11.8265C18.5684 11.8768 18.4706 11.9272 18.4217 12.0278L15.6845 15.2486L14.9513 17.2617L14.4625 18.6708L22.3321 14.3931L23.0164 14.0408L21.3056 12.0278ZM28.6865 0H1.31379C0.629475 0 0.0917969 0.553581 0.0917969 1.25814V25.4144C0.0917969 26.119 0.629475 26.6726 1.31379 26.6726H28.8331C29.4686 26.5719 29.9085 26.0686 29.9085 25.4144V1.25814C29.9085 0.603907 29.3708 0 28.6865 0ZM10.2588 15.3493H10.1122C9.67224 15.3493 9.23232 15.5003 8.84129 15.8526C8.79241 15.9029 8.69465 15.9532 8.64577 16.0539L3.26899 22.3949V3.27116H26.7313V18.3688L22.9676 13.9402L21.3056 11.9775C20.9635 11.5246 20.4258 11.3233 19.8881 11.2729C19.4482 11.2729 19.0083 11.4239 18.6173 11.7762C18.5684 11.8265 18.4706 11.8768 18.4217 11.9775L15.6845 15.1983L13.2894 18.0669L12.4095 17.0604L11.5297 16.0539C11.2364 15.6513 10.7476 15.3996 10.2588 15.3493ZM21.3056 12.0278C20.9635 11.6252 20.4258 11.3736 19.8392 11.3736C19.3993 11.3736 18.9594 11.5246 18.5684 11.8768C18.5195 11.9272 18.4217 11.9775 18.3729 12.0781L15.6356 15.299L14.9024 17.312L14.4136 18.7211L22.2832 14.4434L22.9676 14.0912L21.3056 12.0278Z" fill="#D8D8D8"/>
</svg>
