<svg width="177" height="1" viewBox="0 0 177 1" fill="none" xmlns="http://www.w3.org/2000/svg">
<line y1="0.5" x2="177" y2="0.5" stroke="#FFA0CD" stroke-linejoin="round" stroke-dasharray="1 1"/>
</svg>
