<svg width="20" height="20" viewBox="0 0 20 20" fill="none" xmlns="http://www.w3.org/2000/svg">
<path fill-rule="evenodd" clip-rule="evenodd" d="M5.83333 5C5.61232 5 5.40036 5.0878 5.24408 5.24408C5.0878 5.40036 5 5.61232 5 5.83333V15.1667C5 15.3877 5.0878 15.5996 5.24408 15.7559C5.40036 15.9122 5.61232 16 5.83333 16H8.5C8.77614 16 9 16.2239 9 16.5C9 16.7761 8.77614 17 8.5 17H5.83333C5.3471 17 4.88079 16.8068 4.53697 16.463C4.19315 16.1192 4 15.6529 4 15.1667V5.83333C4 5.3471 4.19315 4.88079 4.53697 4.53697C4.88079 4.19315 5.3471 4 5.83333 4H8.5C8.77614 4 9 4.22386 9 4.5C9 4.77614 8.77614 5 8.5 5H5.83333Z" fill="#AEAEAE"/>
<path fill-rule="evenodd" clip-rule="evenodd" d="M12.8144 6.81295C13.0097 6.61769 13.3263 6.61769 13.5215 6.81295L16.8549 10.1463C17.0501 10.3415 17.0501 10.6581 16.8549 10.8534L13.5215 14.1867C13.3263 14.382 13.0097 14.382 12.8144 14.1867C12.6192 13.9915 12.6192 13.6749 12.8144 13.4796L15.7942 10.4998L12.8144 7.52006C12.6192 7.3248 12.6192 7.00821 12.8144 6.81295Z" fill="#AEAEAE"/>
<path fill-rule="evenodd" clip-rule="evenodd" d="M8 10.5C8 10.2239 8.22386 10 8.5 10H16.5C16.7761 10 17 10.2239 17 10.5C17 10.7761 16.7761 11 16.5 11H8.5C8.22386 11 8 10.7761 8 10.5Z" fill="#AEAEAE"/>
</svg>
