<svg width="20" height="20" viewBox="0 0 20 20" fill="none" xmlns="http://www.w3.org/2000/svg">
<g clip-path="url(#clip0)">
<path d="M20 15.6275V4.37255C20 3.60392 19.3768 3 18.5836 3H1.41643C0.62323 3 0 3.60392 0 4.37255V15.6275C0 16.3961 0.62323 17 1.41643 17H18.5836C19.3768 17 20 16.3961 20 15.6275ZM19.4334 15.6275C19.4334 16.0941 19.0652 16.451 18.5836 16.451H1.41643C0.934844 16.451 0.566572 16.0941 0.566572 15.6275V6.40392L9.29178 11.2627C9.71671 11.5098 10.2833 11.5098 10.7082 11.2627L19.4334 6.40392V15.6275ZM19.4334 5.77255L10.4249 10.7686C10.17 10.9059 9.83003 10.9059 9.57507 10.7686L0.566572 5.77255V4.37255C0.566572 3.90588 0.934844 3.54902 1.41643 3.54902H18.5836C19.0652 3.54902 19.4334 3.90588 19.4334 4.37255V5.77255Z" fill="black" stroke="black" stroke-width="0.5"/>
</g>
<defs>
<clipPath id="clip0">
<rect width="20" height="20" fill="black"/>
</clipPath>
</defs>
</svg>
