<svg width="40" height="40" viewBox="0 0 40 40" fill="none" xmlns="http://www.w3.org/2000/svg">
<path d="M8.75 16.875C10.4763 16.875 11.875 15.4762 11.875 13.75L14.375 5H10.625L5.625 13.75C5.625 15.4762 7.02375 16.875 8.75 16.875Z" fill="#7A0D41"/>
<path d="M16.25 16.875C17.9763 16.875 19.375 15.4762 19.375 13.75V5H15.625L13.125 13.75C13.125 15.4762 14.5237 16.875 16.25 16.875Z" fill="#7A0D41"/>
<path d="M31.25 16.875C32.9763 16.875 34.375 15.4762 34.375 13.75L29.375 5H25.625L28.125 13.75C28.125 15.4762 29.5237 16.875 31.25 16.875Z" fill="#7A0D41"/>
<path d="M23.75 16.875C25.4763 16.875 26.875 15.4762 26.875 13.75L24.375 5H20.625V13.75C20.625 15.4762 22.0237 16.875 23.75 16.875Z" fill="#7A0D41"/>
<path d="M32.5 17.9213C32.1025 18.0413 31.6875 18.1251 31.25 18.1251C29.6513 18.1251 28.2638 17.2513 27.5012 15.9651C26.7387 17.2513 25.3487 18.1251 23.75 18.1251C22.1512 18.1251 20.7613 17.2526 20 15.9676C19.2375 17.2526 17.85 18.1251 16.25 18.1251C14.65 18.1251 13.2612 17.2513 12.4987 15.9651C11.7362 17.2513 10.35 18.1251 8.75 18.1251C8.3125 18.1251 7.89875 18.0413 7.5 17.9213V31.2501H6.25V32.5001H33.75V31.2501H32.5V17.9213ZM24.375 31.2501H15.625V25.4163C15.625 23.0001 17.5837 21.0413 20 21.0413C22.4175 21.0413 24.375 23.0001 24.375 25.4163V31.2501Z" fill="#7A0D41"/>
</svg>
