<svg width="20" height="20" viewBox="0 0 20 20" fill="none" xmlns="http://www.w3.org/2000/svg">
<path d="M13.4799 9.76035C13.3399 9.76035 13.2199 9.66035 13.1799 9.52035C12.8399 8.02035 11.5199 6.96035 9.95994 6.96035C8.39994 6.96035 7.07994 8.02035 6.73994 9.52035C6.69994 9.68035 6.53994 9.78035 6.37994 9.74035C6.21994 9.70035 6.11994 9.54035 6.15994 9.38035C6.55994 7.60035 8.13994 6.36035 9.95994 6.36035C11.7799 6.36035 13.3599 7.60035 13.7599 9.38035C13.7999 9.54035 13.6999 9.70035 13.5399 9.74035C13.5199 9.74035 13.4999 9.76035 13.4799 9.76035Z" fill="black"/>
<path d="M13.5801 9.84009C13.5401 9.84009 13.5001 9.84009 13.4601 9.82009L12.4201 9.38009C12.2601 9.32009 12.2001 9.14009 12.2601 8.98009C12.3201 8.82009 12.5001 8.76009 12.6601 8.82009L13.4201 9.14009L13.7401 8.38009C13.8001 8.22009 13.9801 8.16009 14.1401 8.22009C14.3001 8.28009 14.3601 8.46009 14.3001 8.62009L13.8601 9.66009C13.8201 9.74009 13.7801 9.80009 13.7001 9.82009C13.6601 9.84009 13.6201 9.84009 13.5801 9.84009Z" fill="black"/>
<path d="M10.0202 14.2404C8.20025 14.2404 6.62025 13.0004 6.22025 11.2204C6.18025 11.0604 6.28025 10.9004 6.44025 10.8604C6.60025 10.8204 6.76025 10.9204 6.80025 11.0804C7.14025 12.5804 8.46025 13.6404 10.0202 13.6404C11.5802 13.6404 12.9002 12.5804 13.2402 11.0804C13.2802 10.9204 13.4402 10.8204 13.6002 10.8604C13.7602 10.9004 13.8602 11.0604 13.8202 11.2204C13.4202 13.0004 11.8602 14.2404 10.0202 14.2404Z" fill="black"/>
<path d="M5.98007 12.4006C5.94007 12.4006 5.90007 12.4006 5.86007 12.3806C5.70007 12.3206 5.64007 12.1406 5.70007 11.9806L6.14007 10.9406C6.20007 10.7806 6.38007 10.7206 6.54007 10.7806L7.58007 11.2206C7.74007 11.2806 7.80007 11.4606 7.74007 11.6206C7.68007 11.7806 7.50007 11.8406 7.34007 11.7806L6.58007 11.4606L6.26007 12.2006C6.22007 12.3206 6.10007 12.4006 5.98007 12.4006Z" fill="black"/>
</svg>
