<svg width="18" height="19" viewBox="0 0 18 19" fill="none" xmlns="http://www.w3.org/2000/svg">
<path d="M8.25 14.7114C11.5637 14.7114 14.25 12.0251 14.25 8.71143C14.25 5.39772 11.5637 2.71143 8.25 2.71143C4.93629 2.71143 2.25 5.39772 2.25 8.71143C2.25 12.0251 4.93629 14.7114 8.25 14.7114Z" stroke="#656D78" stroke-width="2" stroke-linecap="round" stroke-linejoin="round"/>
<path d="M15.75 16.2112L12.4875 12.9487" stroke="#656D78" stroke-width="2" stroke-linecap="round" stroke-linejoin="round"/>
</svg>
